<svg xmlns="http://www.w3.org/2000/svg" xmlns:xlink="http://www.w3.org/1999/xlink" width="15" height="8">
  <defs>
    <path id="a" d="M1063.5 257.7l7.5-6.52-1.36-1.18-6.14 5.34-6.15-5.34-1.35 1.18z"/>
  </defs>
  <use xlink:href="#a" transform="translate(-1056 -250)"/>
</svg>
